ID;Tittle
0;Metallica_Kill_Em_All_128kbs/01 - Hit The Lights.mp3;Hit The Lights
1;Metallica_Kill_Em_All_128kbs/02 - The Four Horsemen.mp3;The Four Horsemen
2;Metallica_Kill_Em_All_128kbs/03 - Motorbreath.mp3;Motorbreath
3;Metallica_Kill_Em_All_128kbs/04 - Jump In The Fire.mp3;Jump In The Fire
4;Metallica_Kill_Em_All_128kbs/05 - (Anesthesia) Pulling Teeth.mp3;(Anesthesia) Pulling Teeth
5;Metallica_Kill_Em_All_128kbs/06 - Whiplash.mp3;Whiplash
6;Metallica_Kill_Em_All_128kbs/07 - Phantom Lord.mp3;Phantom Lord
7;Metallica_Kill_Em_All_128kbs/08 - No Remorse.mp3;No Remorse.mp3
8;Metallica_Kill_Em_All_128kbs/09 - Seek & Destroy.mp3;Seek & Destroy
9;Metallica_Kill_Em_All_128kbs/10 - Metal Militia.mp3;Metal Militia
10;Metallica_Kill_Em_All_128kbs/11 - Am I Evil_ (Bonus Track).mp3; Am I Evil_ (Bonus Track)
11;Metallica_Kill_Em_All_128kbs/12 - Blitzkrieg (Bonus Track).mp3;Blitzkrieg (Bonus Track)
